@startuml
set namespaceSeparator ::

package roles {
   class db {
   {field} dbname
   {field} dbuser
   {field} mysql_port
   {field} upassword
      {method} .handlers
      {method} .   +main.yml
      {method} .tasks
      {method} .   +main.yml
   }
   class web {
   {field} httpd_port
   {field} repository
      {method} .handlers
      {method} .   +main.yml
      {method} .tasks
      {method} .   +copy_code.yml
      {method} .   +install_httpd.yml
      {method} .   +main.yml
   }
   class common {
   
      {method} .handlers
      {method} .   +main.yml
      {method} .tasks
      {method} .   +main.yml
   }
}

class site.yml {


}
site.yml --> common
site.yml --> web
site.yml --> db

@enduml
